21 Tutorial: GLMs – Quantitative Analysis of (Messy) Field Data
…
# A tibble: 1 × 8
  null.deviance df.null logLik   AIC   BIC deviance df.residual  nobs
          <dbl>   <int>  <dbl> <dbl> <dbl>    <dbl>       <int> <int>
1      7067483.     145  -968. 1943. 1951. 4923668.         144   146

Next, we can calculate model residuals and then add these values to (i.e. “augment”) our original dataset.

# Augment the original data with predictions and residuals
augment_glm <- augment(base_model)
print(augment_glm)

# A tibble: 146 × 8
   abund mean_depth .fitted  .resid   .hat .sigma    .cooksd .std.resid
   <int>      <int>   <dbl>   <dbl>  <dbl>  <dbl>      <dbl>      <dbl>
 1    76        804    373. -297.   0.0181   184. 0.0243        -1.62  
 2   161        808    373. -212.   0.0181   185. 0.0123        -1.15  
 3    39        809    372. -333.   0.0181   183. 0.0305        -1.82  
 4   410        848    369.   41.4  0.0175   186. 0.000454       0.226 
 5   177        853    368. -191.   0.0175   185. 0.00966       -1.04  
 6   695        960    358.  337.   0.0160   183. 0.0276         1.84  
 7   352        977    356.   -4.05 0.0158   186. 0.00000393    -0.0221
 8   674        982    356.  318.   0.0158   184. 0.0241         1.74  
 9   624        985    355.  269.   0.0157   184. 0.0171         1.46  
10   736        986    355.  381.   0.0157   183. 0.0344         2.08  
# ℹ 136 more rows
…
